#184 - Orleanais | 

owner = A27
controller = A27
add_core = A27
add_core = A26
culture = bluescale_kobold
religion = kobold_dragon_cult

hre = no

base_tax = 1
base_production = 1
base_manpower = 2

trade_goods = wool

capital = ""

is_city = yes







