#330 - Trebizond

owner = A30
controller = A30
#add_core = A30
add_core = Z40
culture = east_damerian
religion = regent_court

hre = yes

base_tax = 5
base_production = 5
base_manpower = 4

trade_goods = cloth

capital = ""

is_city = yes







1443.1.1 = {
	add_core = A18
}




add_permanent_province_modifier = {
	name = half_elven_minority_coexisting_small
	duration = -1
}