# No previous file for Lanzhou
owner = Z21
controller = Z21
add_core = Z21
culture = blue_reachman
religion = regent_court

hre = no

base_tax = 3
base_production = 3
base_manpower = 2

trade_goods = fish

capital = ""

is_city = yes






