#910 - Chippewa

owner = A30
controller = A30
add_core = Z41
culture = east_damerian
religion = regent_court

hre = yes

base_tax = 5
base_production = 4
base_manpower = 2

trade_goods = grain

capital = ""

is_city = yes









