########################################
# Events about Espionage
#
# written by Rufus Tronde
########################################

namespace = espionage_events

# Half the Loyalty, Double the Agent
country_event = {
	id = espionage_events.1
	title = "espionage_events.1.t"
	desc = "espionage_events.1.d"
	picture = SPY_eventPicture

	trigger = {
		has_dlc = "Mare Nostrum"
		any_known_country = {
			has_spy_network_in = {
				who = ROOT
				value = 25
			}
			has_spy_network_from = {
				who = ROOT
				value = 25
			}
			corruption = 10
		}
	}

	mean_time_to_happen = {
		months = 600
	}

	# Recruit the spy
	option = {
		name = "espionage_events.1.a"
		add_treasury = -15
		random_known_country = {
			limit = {
				has_spy_network_in = {
					who = ROOT
					value = 25
				}
				has_spy_network_from = {
					who = ROOT
					value = 25
				}
				corruption = 10
			}
			add_spy_network_from = {
				who = ROOT
				value = 30
			}
			random = {
				chance = 30
				country_event = {
					id = espionage_events.2 # Enemy discovers your plot
					days = 120
				}
			}
		}
	}

	# Execute the spy
	option = {
		name = "espionage_events.1.b"
		random_known_country = {
			limit = {
				has_spy_network_in = {
					who = ROOT
					value = 25
				}
				has_spy_network_from = {
					who = ROOT
					value = 25
				}
				corruption = 10
			}
			add_spy_network_in = {
				who = ROOT
				value = -25
			}
		}
	}
}

# Second Chance for a Traitor
country_event = {
	id = espionage_events.2
	title = "espionage_events.2.t"
	desc = "espionage_events.2.d"
	picture = DIPLOMAT_INTERROGATION_eventPicture

	is_triggered_only = yes

	# Try to turn the spy back
	option = {
		name = "espionage_events.2.a"
		random_list = {
			50 = {
				add_spy_network_in = {
					who = FROM
					value = 25
				}
				FROM = { set_country_flag = re_doubled_agent }
			}
			50 = {
				add_spy_network_from = {
					who = FROM
					value = 15
				}
			}
		}
		FROM = {
			country_event = {
				id = espionage_events.3 # Suspect the double agent's loyalty
				days = 30
			}
		}
	}

	# Execute the spy
	option = {
		name = "espionage_events.2.b"
		add_spy_network_from = {
			who = FROM
			value = -20
		}
	}
}

# Twice the Traitor
country_event = {
	id = espionage_events.3
	title = "espionage_events.3.t"
	desc = "espionage_events.3.d"
	picture = DIPLOMAT_INTERROGATION_eventPicture

	is_triggered_only = yes

	# Kill the agent
	option = {
		name = "espionage_events.3.a"
		custom_tooltip = espionage_events.3.tt_1
		tooltip = {
			add_spy_network_from = {
				who = FROM
				value = -25
			}
		}
		custom_tooltip = espionage_events.3.tt_2
		tooltip = {
			add_spy_network_in = {
				who = FROM
				value = -25
			}
		}
		hidden_effect = {
			if = {
				limit = { has_country_flag = re_doubled_agent }
				add_spy_network_from = {
					who = FROM
					value = -25
				}
			}
			if = {
				limit = { NOT = { has_country_flag = re_doubled_agent } }
				add_spy_network_in = {
					who = FROM
					value = -25
				}
			}
			clr_country_flag = re_doubled_agent
		}
	}

	# Continue operations
	option = {
		name = "espionage_events.3.b"
		custom_tooltip = espionage_events.3.tt_1
		tooltip = {
			add_spy_network_from = {
				who = FROM
				value = 15
			}
		}
		custom_tooltip = espionage_events.3.tt_2
		tooltip = {
			add_spy_network_in = {
				who = FROM
				value = 15
			}
		}
		hidden_effect = {
			if = {
				limit = { has_country_flag = re_doubled_agent }
				add_spy_network_from = {
					who = FROM
					value = 15
				}
			}
			if = {
				limit = { NOT = { has_country_flag = re_doubled_agent } }
				add_spy_network_in = {
					who = FROM
					value = 15
				}
			}
			clr_country_flag = re_doubled_agent
		}
	}
}

# Seal of Confession
# country_event = {
	# id = espionage_events.4
	# title = "espionage_events.4.t"
	# desc = "espionage_events.4.d"
	# picture = NUN_SPY_eventPicture

	# trigger = {
		# has_dlc = "Mare Nostrum"
		# religion = catholic
		# any_known_country = {
			# has_spy_network_from = {
				# who = ROOT
				# value = 10
			# }
			# religion = catholic
		# }
	# }
	
	# immediate = {
		# hidden_effect = {
			# random_known_country = {
				# limit = {
					# has_spy_network_from = {
						# who = ROOT
						# value = 10
					# }
					# religion = catholic
				# }
				# save_event_target_as = victim_country
			# }
		# }
	# }
	
	# mean_time_to_happen = {
		# months = 600
	# }

	# # 
	# option = {
		# name = "espionage_events.4.a"
		# add_spy_network_in = {
			# who = event_target:victim_country
			# value = 25
		# }
		# if = {
			# limit = {
				# NOT = { TAG = PAP }
			# }
			# random = {
				# chance = 30
				# country_event = {
					# id = espionage_events.5 # Pope discovers your plot
					# days = 60
				# }
			# }
		# }
	# }

	# # 
	# option = {
		# name = "espionage_events.4.b"
		# add_dip_power = 10
	# }
# }


# Pope Discovers Plot
country_event = {
	id = espionage_events.5
	title = "espionage_events.5.t"
	desc = "espionage_events.5.d"
	picture = POPE_PREACHING_eventPicture

	is_triggered_only = yes

	# 
	option = {
		name = "espionage_events.5.a"
		add_papal_influence = -15
	}
}

# Opportunity to End a Reign
# country_event = {
	# id = espionage_events.6
	# title = "espionage_events.6.t"
	# desc = "espionage_events.6.d"
	# picture = KING_ASSASSINATION_eventPicture

	# trigger = {
		# has_dlc = "Mare Nostrum"
		# always = no #Removed due to balance concerns
		# any_known_country = {
			# has_spy_network_from = {
				# who = ROOT
				# value = 100
			# }
		# }
	# }

	# mean_time_to_happen = {
		# months = 1200
	# }

	# # 
	# option = {
		# name = "espionage_events.6.a"
		# random_known_country = {
			# limit = {
				# has_spy_network_from = {
					# who = ROOT
					# value = 100
				# }
			# }
			# tooltip = {
				# kill_ruler = yes
				# add_casus_belli = {
					# target = ROOT
					# type = cb_insult
					# months = 36
				# }
			# }
			# hidden_effect = {
				# country_event = { id = espionage_events.7 days = 7 }
			# }
		# }
	# }

	# # 
	# option = {
		# name = "espionage_events.6.b"
		# add_dip_power = 20
	# }
# }

# Regicide!
country_event = {
	id = espionage_events.7
	title = "espionage_events.7.t"
	desc = "espionage_events.7.d"
	picture = KING_ASSASSINATION_eventPicture

	is_triggered_only = yes

	# 
	option = {
		name = "espionage_events.7.a"
		#kill_ruler = yes
		add_casus_belli = {
			target = FROM
			type = cb_insult
			months = 36
		}
	}
}


# $SPYMASTER$ Suspects Neighbors
country_event = {
	id = espionage_events.8
	title = "espionage_events.8.t"
	desc = "espionage_events.8.d"
	picture = SPY_eventPicture

	trigger = {
		has_dlc = "Mare Nostrum"
		advisor = spymaster
		any_neighbor_country = {
			has_spy_network_in = {
				who = ROOT
				value = 25
			}
		}
		any_neighbor_country = {
			NOT = {
				has_spy_network_in = {
					who = ROOT
					value = 1
				}
			}
		}
	}

	mean_time_to_happen = {
		months = 600
	}

	immediate = {
		hidden_effect = {
			random_list = {
				50 = {
					random_known_country = {
						limit = {
							is_neighbor_of = ROOT
							has_spy_network_in = {
								who = ROOT
								value = 25
							}
						}
						save_event_target_as = neighbor_1
					}
					random_known_country = {
						limit = {
							is_neighbor_of = ROOT
							NOT = {
								has_spy_network_in = {
									who = ROOT
									value = 1
								}
							}
						}
						save_event_target_as = neighbor_2
					}
				}
				50 = {
					random_known_country = {
						limit = {
							is_neighbor_of = ROOT
							has_spy_network_in = {
								who = ROOT
								value = 25
							}
						}
						save_event_target_as = neighbor_2
					}
					random_known_country = {
						limit = {
							is_neighbor_of = ROOT
							NOT = {
								has_spy_network_in = {
									who = ROOT
									value = 1
								}
							}
						}
						save_event_target_as = neighbor_1
					}
				}
			}
		}
	}

	# 
	option = {
		name = "espionage_events.8.a"
		event_target:neighbor_1 = {
			add_opinion = {
				who = ROOT
				modifier = counterintelligence_operation
			}
			hidden_effect = {
				if = {
					limit = {
						has_spy_network_in = {
							who = ROOT
							value = 25
						}
					}
					add_spy_network_in = {
						who = ROOT
						value = -25
					}
				}
			}
		}
	}

	# 
	option = {
		name = "espionage_events.8.b"
		event_target:neighbor_2 = {
			add_opinion = {
				who = ROOT
				modifier = counterintelligence_operation
			}
			hidden_effect = {
				if = {
					limit = {
						has_spy_network_in = {
							who = ROOT
							value = 25
						}
					}
					add_spy_network_in = {
						who = ROOT
						value = -25
					}
				}
			}
		}
	}
}


# Secrets in our Alliance
country_event = {
	id = espionage_events.9
	title = "espionage_events.9.t"
	desc = "espionage_events.9.d"
	picture = DIPLOMAT_INTERROGATION_eventPicture

	trigger = {
		has_dlc = "Mare Nostrum"
		num_of_allies = 1
		any_ally = {
			has_spy_network_in = {
				who = ROOT
				value = 30
			}
		}
	}

	mean_time_to_happen = {
		months = 800
	}

	immediate = {
		hidden_effect = { random_ally = { save_event_target_as = spying_ambassador } }
	}

	# 
	option = {
		name = "espionage_events.9.a"
		event_target:spying_ambassador = {
			add_opinion = {
				who = ROOT
				modifier = counterintelligence_operation
			}
			add_spy_network_in = {
				who = ROOT
				value = -10
			}
			hidden_effect = {
				if = {
					limit = {
						has_spy_network_in = {
							who = ROOT
							value = 50
						}
					}
					ROOT = { country_event = { id = espionage_events.10 days = 30 } }
				}
			}
		}
	}

	# 
	option = {
		name = "espionage_events.9.b"
		add_dip_power = -20
	}

	# 
	option = {
		name = "espionage_events.9.c"
		custom_tooltip = espionage_events.9.c.tt
		hidden_effect = {
			event_target:spying_ambassador = {
				random = {
					chance = 50
					add_spy_network_in = {
						who = ROOT
						value = 10
					}
				}
			}
		}
	}
}


# Ambassador Confesses
country_event = {
	id = espionage_events.10
	title = "espionage_events.10.t"
	desc = "espionage_events.10.d"
	picture = DIPLOMAT_INTERROGATION_eventPicture

	is_triggered_only = yes

	# 
	option = {
		name = "espionage_events.10.a"
		event_target:spying_ambassador = {
			add_opinion = {
				who = ROOT
				modifier = imprisoned_ambassador
			}
			add_spy_network_in = {
				who = ROOT
				value = -30
			}
		}
	}

	# 
	option = {
		name = "espionage_events.10.b"
		event_target:spying_ambassador = {
			remove_opinion = {
				who = ROOT
				modifier = counterintelligence_operation
			}
		}
	}
}