#Country Name: Please see filename.

graphical_culture = indiangfx

color = { 82 26 174 }

revolutionary_colors = { 82 26 174 }

historical_idea_groups = {
	economic_ideas
	offensive_ideas
	influence_ideas
	defensive_ideas	
	administrative_ideas	
	trade_ideas
	quality_ideas
	innovativeness_ideas
}

historical_units = {
	harimari_1_harimari_chargers
	harimari_1_harimari_footsoldier
	harimari_9_harimraj_infantry
	harimari_10_elephant_riders
	harimari_12_reformed_harimraj_infantry
	harimari_18_elephant_lords
	harimari_18_harimari_musketeers
	harimari_23_harimraj_musketeers
	harimari_23_raheni_dragoons
	harimari_26_harimari_rifle
	harimari_28_elephant_cannons
	harimari_30_harimraj_legion
}

monarch_names = {

	#Harimari Namelist
	"Acay #0" = 50
	"Ahat #0" = 50
	"Ajnor #0" = 50
	"Akshyar #0" = 50
	"Alambushar #0" = 50
	"Anevyenghur #0" = 50
	"Arimar #0" = 50
	"Atikayar #0" = 50
	"Baka #0" = 50
	"Brajar #0" = 50
	"Bruhit #0" = 50
	"Bruvay #0" = 50
	"Dhasvas #0" = 50
	"Dhubuvar #0" = 50
	"Duratyur #0" = 50
	"Ghatotkacha #0" = 50
	"Haran #0" = 50
	"Harimar #0" = 50
	"Hastar #0" = 50
	"Hidimbar #0" = 50
	"Indar #0" = 50
	"Jatasur #0" = 50
	"Kabandhar #0" = 50
	"Khara #0" = 50
	"Kirmar #0" = 50
	"Kujar #0" = 50
	"Kumbhakar #0" = 50
	"Marichar #0" = 50
	"Mavas #0" = 50
	"Muburmo #0" = 50
	"Natahas #0" = 50
	"Prahastar #0" = 50
	"Prattad #0" = 50
	"Prattan #0" = 50
	"Rama #0" = 50
	"Rarpun #0" = 50
	"Ravanar #0" = 50
	"Ruchahar #0" = 50
	"Ruman #0" = 50
	"Salar #0" = 50
	"Shurpanakar #0" = 50
	"Subahan #0" = 50
	"Tarakar #0" = 50
	"Ujadar #0" = 50
	"Vaka #0" = 50
	"Vamayur #0" = 50
	"Vibhar #0" = 50
	"Vujur #0" = 50
	"Yittarma #0" = 50
	"Zalikar #0" = 50
	
	
	"Aji #0" = -1
	"Amra #0" = -1
	"Anarme #0" = -1
	"Anedhira #0" = -1
	"Anipari #0" = -1
	"Avha #0" = -1
	"Baki #0" = -1
	"Busara #0" = -1
	"Dhelipavi #0" = -1
	"Dhismara #0" = -1
	"Dittatsi #0" = -1
	"Durya #0" = -1
	"Emiridvu #0" = -1
	"Etronda #0" = -1
	"Evhami #0" = -1
	"Idvo #0" = -1
	"Ijatinga #0" = -1
	"Itra #0" = -1
	"Jatasuri #0" = -1
	"Karki #0" = -1
	"Katra #0" = -1
	"Khidvayo #0" = -1
	"Kirmari #0" = -1
	"Norka #0" = -1
	"Nusha #0" = -1
	"Objara #0" = -1
	"Phara #0" = -1
	"Prati #0" = -1
	"Pumri #0" = -1
	"Puryishira #0" = -1
	"Rivaci #0" = -1
	"Rungi #0" = -1
	"Shenra #0" = -1
	"Shurmir #0" = -1
	"Shurpanaka #0" = -1
	"Tataka #0" = -1
	"Tira #0" = -1
	"Vadra #0" = -1
	"Vakirana #0" = -1
	"Vanongi #0" = -1
	"Yabhavara #0" = -1
	"Yihitti #0" = -1
	"Zalika #0" = -1
	
}

leader_names = {
	#Country Specific
	
	#Province Neighbours
	
	#Country Neighbours
	
	#Geographic Neighbours
	"of Rahen" "of the Raghamidesh" "of the Pasindesh" "of the Ghankedhen" "of the Rabhidarubsad" "of the Dhukharuved" "of the Sarniryabsad" "of the Harimraj"
	
	#Noble Families
	"of the White Stripe" "of the Azure Hide" "of the Pouncing Tower" "of the Grand Paw" "of the Silver Lash" "of the Enlightened Star" "of the Forked Waters" "of the Golden Paw" "of the Savage Jolt"
	"of the Lotus Claw" "of the Bloody Claw" "of the Scarred Hide" "of the Crouching Shadow" "of the Ruby Garden" "of the Thousand Strikes" "of the Flower Oath" "of the White Paw"
	"of the Shining Tooth" "of the Feigning Claw" "of the Vengeful Gaze" "of the Diligent Coil" "of the Imperious Stripe" "of the Noble Stripes" "of the Whispering Fist" "of the Piercing Eye" "of the Heavenly Lotus"  
	"of the Endless Moon" "of the Desert Thunder" "of the Boundless Spirit" "of the Falling Claw" 
	
	#Titles
	"'the Tall'" "'the Younger'" "'the Clever'" "'the Vigilant'" "'the Stern'" "'the Mighty'" "'the Kind'" "'the Able'" "'the Good'" "'the Fat'" "'the Slaver'" "'the Magnanimous'" "'the Magnificent'" "'the White'"

	#Harimari Titles
	"'the Scarred'" "'the Sleeping Tiger'" "'the Roaring Tiger'" "'the Wise Tiger'" "'the Scholar'" "'the Thinker'" "'Goldclaw'" "'Highpaw'" "'Blackpaw'" "'Bloodpaw'" "'Wise-eye'"
	"'Amberfist'" "'the Lazy'" "'the Smoker'" "'Bloodfang'" "'One-eye'" "'Half-paw'" "'the High One'" "'the Philosopher'" "'White Stripe'" "'Red Stripe'" "'Manslayer'" "'the Flayer'"
	
	#Harimari Surnames
	"of the Broken Hide" "of the Rising Shadow" "of the Woodland Eyes" "of the Mountain Claw" "of the Spinning Wrath" "of the Crouching Fang" "of the Savage Jolt" "of the Devouring Maw"
	"of the Grand Paw" "of the Bloody Paw" "of the True Claw" "of the Sapphire Eye" "of the Amber Eye" "of the Flowing Strike" "of the Diligent Coil" "of the Raging Claw" "of the Righteous Fury"
	"of the Vengeful Gaze" "of the Grinning Fang" "of the Bloodied Kick" "of the Raging Wind" "of the Endless Moon" "of the Cruel Lash" "of the Wild Fang" "of the Ember Fang" "of the Dreaming Blossom"
	"of the Night Fury" "of the Whispering Fist" "of the Calming Chain" "of the Vile Typhoon" "of the Azure Spirit" "of the Boundless Spirit" "of the Feral Strike" "of the Hungering Fang"
	"of the Shining Fang" "of the Black Hide" "of the Endless Stripe" "of the Shadow Stripe" "of the Rapid Claw" "of the Crouching Thunder" "of the Hidden Fang" "of the Iron Fang"
	"of the Lotus Claw" "of the Jade Claw" "of the Crouching Shadow" "of the Whipe Stripe"
}

ship_names = {
	#Generic South Raheni
	Adamant Advantage Adventure Advice Answer Ardent Armada Arrogant Assistance Association Assurance Atlas Audacious 
	Bear "Black Galley" "Black Pinnace" "Black Blood" Captain Centurion Coronation Courage Crocodile Crown
	Daisy Defence Defiance Devastation Diamond Director Dolphin Dragon Drake Dreadnaught Duke Duchess Eagle Excellent Exchange Expedition Experiment
	Falcon Fame Favourite Fellowship Fleetwood Flight Flirt Formidable Forrester Fortitude Fortune Gillyflower Globe "Golden Horse" "Golden Lion" "Golden Phoenix" Goliath Goodgrace Governor
	"Grand Mistress" "Great Bark" "Great Charity" "Great Galley" "Great Gift"  "Great Pinnace" "Great Zebra" "Green Dragon" Greyhound Griffin Guide "Half Moon" Hare Harpy Hawke Hazardous Heart
	Hero Hope "Hope Bark" "Hopeful Adventure" Humble Hunter Illustrious Impregnable Increase Indefatigable Inflexible Intrepid Invincible "Less Bark" "Less Pinnace" "Less Zebra"
	Lively Lizard Lion Magnanime Magnificent Majestic Makeshift Medusa Minotaur Moderate Monarch Moon Moor "New Bark" Ocean 
	Pansy Panther Parrot Porcupine Powerful
	Redoubtable Reformation Regent Renown Repulse Research Reserve Resistance Resolution Restoration Revenge 
	Salamander Sandwich Sapphire Satisfaction Seahorse Search Sheerness Speaker Speedwell Sphinx Splendid Sprite Stag Standard Stately Success Sunlight Sunbeam Superb Swan Sweepstake Swift Swiftsure
	Terrible Terror Thunderer Tiger Tremendous Trident Trinity Triumph Trusty
	Unicorn Union Unity Valiant Vanguard Venerable Vestal Veteran Victor Vindictive Virtue Violet
	Warrior Warspite Zealous
	
	Elephant

	Survey Surveillance Cow Ox Bird Hawk Sovereign Emperor

	Cleric Rogue Fighter Ranger Sorcerer Wizard Warlock Monk Druid
	Strength Dexterity Constitution Intelligence Wisdom Charisma
}

army_names = {
	"Harimraji Army" "Army of $PROVINCE$"
}

fleet_names = {
	"Harimraji Fleet" "Tiger Fleet" "Elephant Fleet"
}